…
<!-------------------------- Start your work below ---------------------------->

2.  I’m adding a new variable that combines the genus and species names
    for each tree. This will allow for easier species-specific
    identification of trees.

``` r
(vantrees_sciname <- 
  vancouver_trees %>%
  mutate(scientific_name = paste(genus_name, species_name)) %>% #adding the new column by concatenating genus and species
  select(tree_id:cultivar_name, scientific_name, common_name:latitude)) #reordering so that scientific name comes before common name
```

    ## # A tibble: 146,611 x 21
    ##    tree_id civic_number std_st~1 genus~2 speci~3 culti~4 scien~5 commo~6 assig~7
    ##      <dbl>        <dbl> <chr>    <chr>   <chr>   <chr>   <chr>   <chr>   <chr>  
    ##  1  149556          494 W 58TH ~ ULMUS   AMERIC~ BRANDON ULMUS ~ BRANDO~ N      
    ##  2  149563          450 W 58TH ~ ZELKOVA SERRATA <NA>    ZELKOV~ JAPANE~ N      
    ##  3  149579         4994 WINDSOR~ STYRAX  JAPONI~ <NA>    STYRAX~ JAPANE~ N      
    ##  4  149590          858 E 39TH ~ FRAXIN~ AMERIC~ AUTUMN~ FRAXIN~ AUTUMN~ Y      
    ##  5  149604         5032 WINDSOR~ ACER    CAMPES~ <NA>    ACER C~ HEDGE ~ N      
    ##  6  149616          585 W 61ST ~ PYRUS   CALLER~ CHANTI~ PYRUS ~ CHANTI~ N      
    ##  7  149617         4909 SHERBRO~ ACER    PLATAN~ COLUMN~ ACER P~ COLUMN~ N      
    ##  8  149618         4925 SHERBRO~ ACER    PLATAN~ COLUMN~ ACER P~ COLUMN~ N      
    ##  9  149619         4969 SHERBRO~ ACER    PLATAN~ COLUMN~ ACER P~ COLUMN~ N      
    ## 10  149625          720 E 39TH ~ FRAXIN~ AMERIC~ AUTUMN~ FRAXIN~ AUTUMN~ N      
    ## # ... with 146,601 more rows, 12 more variables: root_barrier <chr>,
    ## #   plant_area <chr>, on_street_block <dbl>, on_street <chr>,
    ## #   neighbourhood_name <chr>, street_side_name <chr>, height_range_id <dbl>,
    ## #   diameter <dbl>, curb <chr>, date_planted <date>, longitude <dbl>,
    ## #   latitude <dbl>, and abbreviated variable names 1: std_street,
    ## #   2: genus_name, 3: species_name, 4: cultivar_name, 5: scientific_name,
    ## #   6: common_name, 7: assigned
…
5.  Here I’m filtering by the genuses for Elm and Maple trees. These
    genuses are specifically interesting because they are the tree types
    most impacted by the japanese beetle, which is an invasive pest in
    Vancouver. This subset of the data could help us understand which
    neighbourhoods are most at risk for invasion of the japanese beetle.

``` r
(vantrees_elmmaple <-
  vantrees_sciname %>%
  filter(genus_name == "ULMUS" | genus_name == "ACER"))
```

    ## # A tibble: 38,923 x 21
    ##    tree_id civic_number std_st~1 genus~2 speci~3 culti~4 scien~5 commo~6 assig~7
    ##      <dbl>        <dbl> <chr>    <chr>   <chr>   <chr>   <chr>   <chr>   <chr>  
    ##  1  149556          494 W 58TH ~ ULMUS   AMERIC~ BRANDON ULMUS ~ BRANDO~ N      
    ##  2  149604         5032 WINDSOR~ ACER    CAMPES~ <NA>    ACER C~ HEDGE ~ N      
    ##  3  149617         4909 SHERBRO~ ACER    PLATAN~ COLUMN~ ACER P~ COLUMN~ N      
    ##  4  149618         4925 SHERBRO~ ACER    PLATAN~ COLUMN~ ACER P~ COLUMN~ N      
    ##  5  149619         4969 SHERBRO~ ACER    PLATAN~ COLUMN~ ACER P~ COLUMN~ N      
    ##  6  149640         6968 SELKIRK~ ACER    PLATAN~ COLUMN~ ACER P~ COLUMN~ N      
    ##  7  149680         5311 WINDSOR~ ACER    CAMPES~ <NA>    ACER C~ HEDGE ~ N      
    ##  8  149683         7011 SELKIRK~ ACER    PLATAN~ COLUMN~ ACER P~ COLUMN~ N      
    ##  9  149684         1223 W 54TH ~ ACER    PLATAN~ COLUMN~ ACER P~ COLUMN~ N      
    ## 10  149686         5007 WINDSOR~ ACER    CAMPES~ <NA>    ACER C~ HEDGE ~ N      
    ## # ... with 38,913 more rows, 12 more variables: root_barrier <chr>,
    ## #   plant_area <chr>, on_street_block <dbl>, on_street <chr>,
    ## #   neighbourhood_name <chr>, street_side_name <chr>, height_range_id <dbl>,
    ## #   diameter <dbl>, curb <chr>, date_planted <date>, longitude <dbl>,
    ## #   latitude <dbl>, and abbreviated variable names 1: std_street,
    ## #   2: genus_name, 3: species_name, 4: cultivar_name, 5: scientific_name,
    ## #   6: common_name, 7: assigned
…
**1. Which neighbourhoods have the highest tree species diversity?**

    - Compute the number of observations for at least one of your categorical variables.

      *I will be calculating how many different species are present in each neighbourhood. Species count is a good measure of the biodiversity of an area. It is helpful to have this summary, but it is difficult to understand what the numbers mean without a graphical visualization of the summary.*

``` r
(speciesdiv_neighbourhood <- 
  vantrees_sciname %>%
  group_by(neighbourhood_name) %>%
  summarise(species_count = n_distinct(scientific_name)))
```

    ## # A tibble: 22 x 2
    ##    neighbourhood_name       species_count
    ##    <chr>                            <int>
    ##  1 ARBUTUS-RIDGE                      146
    ##  2 DOWNTOWN                            94
    ##  3 DUNBAR-SOUTHLANDS                  207
    ##  4 FAIRVIEW                           143
    ##  5 GRANDVIEW-WOODLAND                 183
    ##  6 HASTINGS-SUNRISE                   213
    ##  7 KENSINGTON-CEDAR COTTAGE           195
    ##  8 KERRISDALE                         173
    ##  9 KILLARNEY                          144
    ## 10 KITSILANO                          214
    ## # ... with 12 more rows
…
    - Compute the number of observations for at least one of your categorical variables.

    *Here I am calculating the number of Elm and Maple trees in each neighbourhood. This may be useful down the road, but there are too many neighbourhoods for this summary table to be very helpful to just look at. I will need to graph this or sumarize it further to get visually clear results.*

``` r
(elmmaple_neighbourhood <- 
  vantrees_elmmaple %>%
  group_by(genus_name, neighbourhood_name) %>%
  summarise(n = n()))
```

    ## `summarise()` has grouped output by 'genus_name'. You can override using the
    ## `.groups` argument.

    ## # A tibble: 44 x 3
    ## # Groups:   genus_name [2]
    ##    genus_name neighbourhood_name           n
    ##    <chr>      <chr>                    <int>
    ##  1 ACER       ARBUTUS-RIDGE              867
    ##  2 ACER       DOWNTOWN                  2043
    ##  3 ACER       DUNBAR-SOUTHLANDS         2464
    ##  4 ACER       FAIRVIEW                  1403
    ##  5 ACER       GRANDVIEW-WOODLAND        1829
    ##  6 ACER       HASTINGS-SUNRISE          2508
    ##  7 ACER       KENSINGTON-CEDAR COTTAGE  2438
    ##  8 ACER       KERRISDALE                1900
    ##  9 ACER       KILLARNEY                 1357
    ## 10 ACER       KITSILANO                 2211
    ## # ... with 34 more rows
…
