…
If your data is untidy, then tidy it! Then, untidy it back to it’s
original state.

Be sure to explain your reasoning for this task. Show us the “before”
and “after”.

<!--------------------------- Start your work below --------------------------->

``` r
#BEFORE 
(vancouver_trees)
```

    ## # A tibble: 146,611 x 20
    ##    tree_id civic_number std_st~1 genus~2 speci~3 culti~4 commo~5 assig~6 root_~7
    ##      <dbl>        <dbl> <chr>    <chr>   <chr>   <chr>   <chr>   <chr>   <chr>  
    ##  1  149556          494 W 58TH ~ ULMUS   AMERIC~ BRANDON BRANDO~ N       N      
    ##  2  149563          450 W 58TH ~ ZELKOVA SERRATA <NA>    JAPANE~ N       N      
    ##  3  149579         4994 WINDSOR~ STYRAX  JAPONI~ <NA>    JAPANE~ N       N      
    ##  4  149590          858 E 39TH ~ FRAXIN~ AMERIC~ AUTUMN~ AUTUMN~ Y       N      
    ##  5  149604         5032 WINDSOR~ ACER    CAMPES~ <NA>    HEDGE ~ N       N      
    ##  6  149616          585 W 61ST ~ PYRUS   CALLER~ CHANTI~ CHANTI~ N       N      
    ##  7  149617         4909 SHERBRO~ ACER    PLATAN~ COLUMN~ COLUMN~ N       N      
    ##  8  149618         4925 SHERBRO~ ACER    PLATAN~ COLUMN~ COLUMN~ N       N      
    ##  9  149619         4969 SHERBRO~ ACER    PLATAN~ COLUMN~ COLUMN~ N       N      
    ## 10  149625          720 E 39TH ~ FRAXIN~ AMERIC~ AUTUMN~ AUTUMN~ N       N      
    ## # ... with 146,601 more rows, 11 more variables: plant_area <chr>,
    ## #   on_street_block <dbl>, on_street <chr>, neighbourhood_name <chr>,
    ## #   street_side_name <chr>, height_range_id <dbl>, diameter <dbl>, curb <chr>,
    ## #   date_planted <date>, longitude <dbl>, latitude <dbl>, and abbreviated
    ## #   variable names 1: std_street, 2: genus_name, 3: species_name,
    ## #   4: cultivar_name, 5: common_name, 6: assigned, 7: root_barrier
…
unique(vancouver_trees_tidy$plant_area) #That looks better!
```

    ## [1] N O B C G
    ## Levels: B G N C O

``` r
#Reordering so boulevard_width is after plant_area
(vancouver_trees_tidy <- vancouver_trees_tidy %>%
  select(tree_id:plant_area, boulevard_width, everything()))
```

    ## # A tibble: 144,434 x 21
    ##    tree_id civic_number std_st~1 genus~2 speci~3 culti~4 commo~5 assig~6 root_~7
    ##      <dbl>        <dbl> <chr>    <chr>   <chr>   <chr>   <chr>   <chr>   <chr>  
    ##  1  149556          494 W 58TH ~ ULMUS   AMERIC~ BRANDON BRANDO~ N       N      
    ##  2  149563          450 W 58TH ~ ZELKOVA SERRATA <NA>    JAPANE~ N       N      
    ##  3  149579         4994 WINDSOR~ STYRAX  JAPONI~ <NA>    JAPANE~ N       N      
    ##  4  149590          858 E 39TH ~ FRAXIN~ AMERIC~ AUTUMN~ AUTUMN~ Y       N      
    ##  5  149604         5032 WINDSOR~ ACER    CAMPES~ <NA>    HEDGE ~ N       N      
    ##  6  149616          585 W 61ST ~ PYRUS   CALLER~ CHANTI~ CHANTI~ N       N      
    ##  7  149617         4909 SHERBRO~ ACER    PLATAN~ COLUMN~ COLUMN~ N       N      
    ##  8  149618         4925 SHERBRO~ ACER    PLATAN~ COLUMN~ COLUMN~ N       N      
    ##  9  149619         4969 SHERBRO~ ACER    PLATAN~ COLUMN~ COLUMN~ N       N      
    ## 10  149625          720 E 39TH ~ FRAXIN~ AMERIC~ AUTUMN~ AUTUMN~ N       N      
    ## # ... with 144,424 more rows, 12 more variables: plant_area <fct>,
    ## #   boulevard_width <chr>, on_street_block <dbl>, on_street <chr>,
    ## #   neighbourhood_name <chr>, street_side_name <chr>, height_range_id <dbl>,
    ## #   diameter <dbl>, curb <chr>, date_planted <date>, longitude <dbl>,
    ## #   latitude <dbl>, and abbreviated variable names 1: std_street,
    ## #   2: genus_name, 3: species_name, 4: cultivar_name, 5: common_name,
    ## #   6: assigned, 7: root_barrier
…
